…
✖ dplyr::collapse()   masks Biostrings::collapse(), IRanges::collapse()
✖ dplyr::combine()    masks Biobase::combine(), BiocGenerics::combine()
✖ purrr::compact()    masks XVector::compact()
✖ dplyr::count()      masks matrixStats::count()
✖ dplyr::desc()       masks IRanges::desc()
✖ tidyr::expand()     masks S4Vectors::expand()
✖ dplyr::filter()     masks stats::filter()
✖ dplyr::first()      masks GenomicAlignments::first(), S4Vectors::first()
✖ dplyr::lag()        masks stats::lag()
✖ dplyr::last()       masks GenomicAlignments::last()
✖ ggplot2::Position() masks BiocGenerics::Position(), base::Position()
✖ purrr::reduce()     masks GenomicRanges::reduce(), IRanges::reduce()
✖ dplyr::rename()     masks S4Vectors::rename()
✖ dplyr::slice()      masks XVector::slice(), IRanges::slice()
# A tibble: 1,000 × 1
   frag_len
      <int>
 1        1
 2        2
 3        3
 4        4
 5        5
 6        6
 7        7
 8        8
 9        9
10       10
# … with 990 more rows
…
